\relax 
\citation{rosen1986}
\citation{beauregard2011}
\citation{edwards2001,edwards2002}
\citation{oettinger2011}
\citation{mccrate2005}
\citation{kraut1987}
\citation{oettinger2011}
\citation{schroeder2005}
\citation{edwards2001,edwards2002}
\citation{oettinger2011}
\citation{schroeder2005}
\citation{edwards2001}
\citation{mccrate2002,mccrate2005}
\@writefile{toc}{\contentsline {section}{\numberline {1}Abstract}{1}}
\citation{ross1973economic}
\bibstyle{apalike}
\bibdata{master.bib}
\bibcite{beauregard2011}{{1}{2011}{{Beauregard}}{{}}}
\bibcite{edwards2001}{{2}{2001}{{Edwards and Field-Hendrey}}{{}}}
\bibcite{edwards2002}{{3}{2002}{{Edwards and Field-Hendrey}}{{}}}
\bibcite{kraut1987}{{4}{1987}{{Kraut and Grambsch}}{{}}}
\bibcite{mccrate2002}{{5}{2002}{{McCrate}}{{}}}
\bibcite{mccrate2005}{{6}{2005}{{McCrate}}{{}}}
\bibcite{oettinger2011}{{7}{2011}{{Oettinger}}{{}}}
\bibcite{rosen1986}{{8}{1986}{{Rosen}}{{}}}
\bibcite{ross1973economic}{{9}{1973}{{Ross}}{{}}}
\bibcite{schroeder2005}{{10}{2005}{{Schroeder and Warren}}{{}}}
