\relax 
\citation{rosen1986theory}
\citation{smith1776inquiry}
\citation{rosen1986theory}
\citation{paul1986compensating}
\citation{mccrate2005flexible}
\citation{golden2009flexible,golden2008limited}
\citation{johnson1996relationship,mccrate2005flexible}
\citation{oettinger2004growth}
\citation{oettinger2011incidence}
\@writefile{toc}{\contentsline {section}{\numberline {1}Introduction and Summary of Research Project}{2}}
\@writefile{toc}{\contentsline {section}{\numberline {2}Model}{4}}
\newlabel{pawage}{{6}{4}}
\bibstyle{apalike}
\bibdata{Master.bib}
