\relax 
\providecommand\hyper@newdestlabel[2]{}
\providecommand\HyperFirstAtBeginDocument{\AtBeginDocument}
\HyperFirstAtBeginDocument{\ifx\hyper@anchor\@undefined
\global\let\oldcontentsline\contentsline
\gdef\contentsline#1#2#3#4{\oldcontentsline{#1}{#2}{#3}}
\global\let\oldnewlabel\newlabel
\gdef\newlabel#1#2{\newlabelxx{#1}#2}
\gdef\newlabelxx#1#2#3#4#5#6{\oldnewlabel{#1}{{#2}{#3}}}
\AtEndDocument{\ifx\hyper@anchor\@undefined
\let\contentsline\oldcontentsline
\let\newlabel\oldnewlabel
\fi}
\fi}
\global\let\hyper@last\relax 
\gdef\HyperFirstAtBeginDocument#1{#1}
\providecommand*\HyPL@Entry[1]{}
\HyPL@Entry{0<</S/D>>}
\citation{pepitone2013marissa}
\citation{peck2015proof}
\citation{usatoday2011}
\citation{beauregard2011,edwards2001,edwards2002}
\citation{mccrate2005}
\citation{oettinger2011}
\citation{oettinger2011}
\HyPL@Entry{1<</S/D>>}
\@writefile{toc}{\contentsline {section}{\numberline {1}Introduction}{1}{section.1}}
\newlabel{intro}{{1}{1}{Introduction}{section.1}{}}
\citation{ross1973economic}
\citation{edwards2001,edwards2002}
\citation{oettinger2011}
\citation{schroeder2005}
\citation{edwards2001}
\citation{mccrate2002,mccrate2005}
\citation{rosen1986}
\citation{oettinger2011}
\citation{heckman1979sample}
\citation{mas1995microeconomic}
\@writefile{toc}{\contentsline {section}{\numberline {2}Applying Agency Theory to the Problem}{4}{section.2}}
\newlabel{model}{{2}{4}{Applying Agency Theory to the Problem}{section.2}{}}
\@writefile{toc}{\contentsline {subsection}{\numberline {2.1}Inducing High Effort}{4}{subsection.2.1}}
\newlabel{model:high}{{2.1}{4}{Inducing High Effort}{subsection.2.1}{}}
\newlabel{PA}{{1}{6}{Inducing High Effort}{equation.2.1}{}}
\citation{maskin1990principal}
\newlabel{lagrange}{{2}{7}{Inducing High Effort}{equation.2.2}{}}
\newlabel{FOC}{{3}{7}{Inducing High Effort}{equation.2.3}{}}
\newlabel{util}{{4}{8}{Inducing High Effort}{equation.2.4}{}}
\@writefile{toc}{\contentsline {subsection}{\numberline {2.2}Monitoring and Wage Variance}{9}{subsection.2.2}}
\newlabel{model:wage}{{2.2}{9}{Monitoring and Wage Variance}{subsection.2.2}{}}
\newlabel{wagefn}{{5}{9}{Monitoring and Wage Variance}{equation.2.5}{}}
\@writefile{toc}{\contentsline {subsection}{\numberline {2.3}Shifts in the Wage Differential Due to Technology}{10}{subsection.2.3}}
\newlabel{model:wagediff}{{2.3}{10}{Shifts in the Wage Differential Due to Technology}{subsection.2.3}{}}
\@writefile{toc}{\contentsline {subsection}{\numberline {2.4}If Low Effort Is Preferred}{11}{subsection.2.4}}
\newlabel{model:low}{{2.4}{11}{If Low Effort Is Preferred}{subsection.2.4}{}}
\citation{oettinger2011}
\citation{oettinger2011}
\citation{schroeder2005}
\@writefile{toc}{\contentsline {section}{\numberline {3}Empirical Model}{12}{section.3}}
\newlabel{empMod}{{3}{12}{Empirical Model}{section.3}{}}
\citation{oettinger2011}
\citation{oettinger2011}
\citation{oettinger2011}
\citation{oettinger2011}
\citation{oettinger2011}
\@writefile{toc}{\contentsline {subsection}{\numberline {3.1}Estimating the Wage Differential}{13}{subsection.3.1}}
\newlabel{olsmodel}{{3.1}{13}{Estimating the Wage Differential}{subsection.3.1}{}}
\newlabel{eqnOLS}{{6}{13}{Estimating the Wage Differential}{equation.3.6}{}}
\citation{heckman1979sample}
\@writefile{toc}{\contentsline {subsubsection}{\numberline {3.1.1}Selection Bias of Home-Workers}{14}{subsubsection.3.1.1}}
\citation{heckman1979sample}
\newlabel{eqnHeck}{{9}{15}{Selection Bias of Home-Workers}{equation.3.9}{}}
\citation{heckman1979sample}
\citation{sorensen2000equilibrium}
\citation{IPUMS}
\citation{oettinger2011}
\@writefile{toc}{\contentsline {subsection}{\numberline {3.2}Estimating the Variance of Wages}{17}{subsection.3.2}}
\newlabel{sub:varest}{{3.2}{17}{Estimating the Variance of Wages}{subsection.3.2}{}}
\@writefile{toc}{\contentsline {section}{\numberline {4}Data}{18}{section.4}}
\newlabel{data}{{4}{18}{Data}{section.4}{}}
\citation{oettinger2011}
\citation{oettinger2011}
\citation{oettinger2011}
\@writefile{toc}{\contentsline {section}{\numberline {5}Results}{20}{section.5}}
\newlabel{results}{{5}{20}{Results}{section.5}{}}
\@writefile{toc}{\contentsline {subsection}{\numberline {5.1}Wage Differential}{20}{subsection.5.1}}
\@writefile{toc}{\contentsline {subsubsection}{\numberline {5.1.1}Least Squares Analysis}{20}{subsubsection.5.1.1}}
\newlabel{res:oett}{{5.1.1}{20}{Least Squares Analysis}{subsubsection.5.1.1}{}}
\citation{internetrates}
\citation{oettinger2011}
\@writefile{toc}{\contentsline {subsubsection}{\numberline {5.1.2}Common Industries and Occupations}{21}{subsubsection.5.1.2}}
\@writefile{toc}{\contentsline {subsubsection}{\numberline {5.1.3}Heckman Selection Model}{22}{subsubsection.5.1.3}}
\newlabel{res:heck}{{5.1.3}{22}{Heckman Selection Model}{subsubsection.5.1.3}{}}
\@writefile{toc}{\contentsline {subsection}{\numberline {5.2}Wage Variance Analysis}{23}{subsection.5.2}}
\@writefile{toc}{\contentsline {section}{\numberline {6}Conclusion}{24}{section.6}}
\newlabel{conclusion}{{6}{24}{Conclusion}{section.6}{}}
\bibstyle{apalike}
\bibdata{master.bib}
\bibcite{beauregard2011}{{1}{2011}{{Beauregard}}{{}}}
\bibcite{edwards2001}{{2}{2001}{{Edwards and Field-Hendrey}}{{}}}
\bibcite{edwards2002}{{3}{2002}{{Edwards and Field-Hendrey}}{{}}}
\bibcite{heckman1979sample}{{4}{1979}{{Heckman}}{{}}}
\bibcite{mas1995microeconomic}{{5}{1995}{{Mas-Colell et~al.}}{{}}}
\bibcite{maskin1990principal}{{6}{1990}{{Maskin and Tirole}}{{}}}
\bibcite{mccrate2002}{{7}{2002}{{McCrate}}{{}}}
\bibcite{mccrate2005}{{8}{2005}{{McCrate}}{{}}}
\bibcite{mulligan2008selection}{{9}{2008}{{Mulligan and Rubinstein}}{{}}}
\bibcite{oettinger2011}{{10}{2011}{{Oettinger}}{{}}}
\bibcite{peck2015proof}{{11}{2015}{{Peck}}{{}}}
\bibcite{pepitone2013marissa}{{12}{2013}{{Pepitone}}{{}}}
\bibcite{rosen1986}{{13}{1986}{{Rosen}}{{}}}
\bibcite{ross1973economic}{{14}{1973}{{Ross}}{{}}}
\bibcite{IPUMS}{{15}{2010}{{Ruggles et~al.}}{{}}}
\bibcite{schroeder2005}{{16}{2005}{{Schroeder and Warren}}{{}}}
\bibcite{sorensen2000equilibrium}{{17}{2000}{{Sorensen}}{{}}}
\bibcite{internetrates}{{18}{2015}{{Stats}}{{}}}
\bibcite{usatoday2011}{{19}{2011}{{Strauss}}{{}}}
\@writefile{lof}{\contentsline {figure}{\numberline {1}{\ignorespaces Wage Differential Over Time From 1980\relax }}{28}{figure.caption.2}}
\providecommand*\caption@xref[2]{\@setref\relax\@undefined{#1}}
\newlabel{plotlong}{{1}{28}{Wage Differential Over Time From 1980\relax }{figure.caption.2}{}}
\@writefile{lof}{\contentsline {figure}{\numberline {2}{\ignorespaces Wage Differential Over Time From 2000\relax }}{29}{figure.caption.3}}
\newlabel{plotshort}{{2}{29}{Wage Differential Over Time From 2000\relax }{figure.caption.3}{}}
\@writefile{lof}{\contentsline {figure}{\numberline {3}{\ignorespaces Wage Variance Over Time\relax }}{30}{figure.caption.4}}
\newlabel{vargraph}{{3}{30}{Wage Variance Over Time\relax }{figure.caption.4}{}}
\@writefile{lot}{\contentsline {table}{\numberline {1}{\ignorespaces Sample Means for Full-time Employees in Census Samples, and First and Last Years of ACS\relax }}{31}{table.caption.5}}
\newlabel{table:sumA}{{1}{31}{Sample Means for Full-time Employees in Census Samples, and First and Last Years of ACS\relax }{table.caption.5}{}}
\@writefile{lot}{\contentsline {table}{\numberline {2}{\ignorespaces Observations in Industry and Occupation Groups\relax }}{32}{table.caption.6}}
\newlabel{table:groups}{{2}{32}{Observations in Industry and Occupation Groups\relax }{table.caption.6}{}}
\@writefile{lot}{\contentsline {table}{\numberline {3}{\ignorespaces Occupations and Industries Prevalent Among Home-Workers\relax }}{33}{table.caption.7}}
\newlabel{indcount}{{3}{33}{Occupations and Industries Prevalent Among Home-Workers\relax }{table.caption.7}{}}
\@writefile{lot}{\contentsline {table}{\numberline {4}{\ignorespaces Wage penalty for Working from Home (\% of Hourly Wage), using Oettinger's OLS Configuration\relax }}{34}{table.caption.8}}
\newlabel{table:resOett}{{4}{34}{Wage penalty for Working from Home (\% of Hourly Wage), using Oettinger's OLS Configuration\relax }{table.caption.8}{}}
\@writefile{lot}{\contentsline {table}{\numberline {5}{\ignorespaces OLS Results for 2014\relax }}{35}{table.caption.9}}
\newlabel{table:OLS13}{{5}{35}{OLS Results for 2014\relax }{table.caption.9}{}}
\@writefile{lot}{\contentsline {table}{\numberline {6}{\ignorespaces Results for Industries and Occupations with Largest Number of Home-workers\relax }}{36}{table.caption.10}}
\newlabel{table:TopReg}{{6}{36}{Results for Industries and Occupations with Largest Number of Home-workers\relax }{table.caption.10}{}}
\@writefile{lot}{\contentsline {table}{\numberline {7}{\ignorespaces Wage penalty for Working from Home (\% of Hourly Wage), Heckman Selection Model\relax }}{37}{table.caption.11}}
\newlabel{table:Heckman}{{7}{37}{Wage penalty for Working from Home (\% of Hourly Wage), Heckman Selection Model\relax }{table.caption.11}{}}
\@writefile{lot}{\contentsline {table}{\numberline {8}{\ignorespaces Logged Difference in Wage Variance for Home-Workers\relax }}{38}{table.caption.12}}
\newlabel{table:var}{{8}{38}{Logged Difference in Wage Variance for Home-Workers\relax }{table.caption.12}{}}
